<?xml version="1.0" encoding="UTF-8" standalone="no"?>
<svg preserveAspectRatio="none" viewBox="0 0 30 30" version="1.1" xmlns="http://www.w3.org/2000/svg" xmlns:xlink="http://www.w3.org/1999/xlink" xmlns:sketch="http://www.bohemiancoding.com/sketch/ns">
    <!-- Generator: Sketch 3.5.2 (25235) - http://www.bohemiancoding.com/sketch -->
    <title>Gluten Free</title>
    <desc>Created with Sketch.</desc>
    <defs></defs>
    <g id="Icons" stroke="none" stroke-width="1" fill="none" fill-rule="evenodd" sketch:type="MSPage">
        <g id="Gluten-Free" sketch:type="MSLayerGroup" fill="#EE6F67">
            <path d="M15,28 L15,28 C22.1797017,28 28,22.1797017 28,15 C28,7.82029825 22.1797017,2 15,2 C7.82029825,2 2,7.82029825 2,15 C2,22.1797017 7.82029825,28 15,28 L15,28 Z M15,30 L15,30 C6.71572875,30 0,23.2842712 0,15 C0,6.71572875 6.71572875,0 15,0 C23.2842712,0 30,6.71572875 30,15 C30,23.2842712 23.2842712,30 15,30 L15,30 Z" id="Shape" sketch:type="MSShapeGroup"></path>
            <path d="M10.725,21.234 C8.9849913,21.234 7.52100594,20.6550058 6.333,19.497 C5.14499406,18.3389942 4.551,16.8420092 4.551,15.006 C4.551,13.1699908 5.14499406,11.6760058 6.333,10.524 C7.52100594,9.37199424 8.9849913,8.796 10.725,8.796 C12.6210095,8.796 14.1749939,9.5459925 15.387,11.046 L14.199,11.784 C13.8149981,11.2799975 13.3140031,10.8780015 12.696,10.578 C12.0779969,10.2779985 11.4210035,10.128 10.725,10.128 C9.4049934,10.128 8.30400441,10.5869954 7.422,11.505 C6.53999559,12.4230046 6.099,13.5899929 6.099,15.006 C6.099,16.4220071 6.53999559,17.5919954 7.422,18.516 C8.30400441,19.4400046 9.4049934,19.902 10.725,19.902 C11.3850033,19.902 11.9999971,19.7730013 12.57,19.515 C13.1400028,19.2569987 13.5989983,18.9540017 13.947,18.606 L13.947,16.158 L9.825,16.158 L9.825,14.826 L15.441,14.826 L15.441,19.164 C14.2049938,20.5440069 12.6330095,21.234 10.725,21.234 L10.725,21.234 Z M19.365,21 L17.871,21 L17.871,8.994 L25.737,8.994 L25.737,10.326 L19.365,10.326 L19.365,14.196 L25.611,14.196 L25.611,15.528 L19.365,15.528 L19.365,21 Z" id="GF" sketch:type="MSShapeGroup"></path>
        </g>
    </g>
</svg>