<?xml version="1.0" encoding="UTF-8" standalone="no"?>
<svg preserveAspectRatio="none" viewBox="0 0 30 30" version="1.1" xmlns="http://www.w3.org/2000/svg" xmlns:xlink="http://www.w3.org/1999/xlink" xmlns:sketch="http://www.bohemiancoding.com/sketch/ns">
    <!-- Generator: Sketch 3.5.2 (25235) - http://www.bohemiancoding.com/sketch -->
    <title>Nut Free</title>
    <desc>Created with Sketch.</desc>
    <defs></defs>
    <g id="Icons" stroke="none" stroke-width="1" fill="none" fill-rule="evenodd" sketch:type="MSPage">
        <g id="Nut-Free" sketch:type="MSLayerGroup" fill="#EE6F67">
            <path d="M15,28 L15,28 C22.1797017,28 28,22.1797017 28,15 C28,7.82029825 22.1797017,2 15,2 C7.82029825,2 2,7.82029825 2,15 C2,22.1797017 7.82029825,28 15,28 L15,28 Z M15,30 L15,30 C6.71572875,30 0,23.2842712 0,15 C0,6.71572875 6.71572875,0 15,0 C23.2842712,0 30,6.71572875 30,15 C30,23.2842712 23.2842712,30 15,30 L15,30 Z" id="Shape" sketch:type="MSShapeGroup"></path>
            <path d="M15.018,21 L13.578,21 L6.576,11.424 L6.576,21 L5.082,21 L5.082,8.994 L6.612,8.994 L13.524,18.372 L13.524,8.994 L15.018,8.994 L15.018,21 Z M19.32,21 L17.826,21 L17.826,8.994 L25.692,8.994 L25.692,10.326 L19.32,10.326 L19.32,14.196 L25.566,14.196 L25.566,15.528 L19.32,15.528 L19.32,21 Z" id="NF" sketch:type="MSShapeGroup"></path>
        </g>
    </g>
</svg>