<svg  preserveAspectRatio="none" xmlns="http://www.w3.org/2000/svg" viewBox="0 0 24 24">
  <path fill="#2C4C70" fill-rule="evenodd" d="M88,110 C93.514,110 98,114.486 98,120 C98,125.514 93.514,130 88,130 C82.486,130 78,125.514 78,120 C78,114.486 82.486,110 88,110 Z M88,108 C81.373,108 76,113.373 76,120 C76,126.627 81.373,132 88,132 C94.627,132 100,126.627 100,120 C100,113.373 94.627,108 88,108 Z M94,122 L82,122 C82.331,123.465 84.827,126 88.001,126 C91.135,126 93.667,123.479 94,122 Z M84.5,116 C83.672,116 83,116.671 83,117.5 C83,118.329 83.672,119 84.5,119 C85.328,119 86,118.329 86,117.5 C86,116.671 85.328,116 84.5,116 Z M91.5,116 C90.672,116 90,116.671 90,117.5 C90,118.329 90.672,119 91.5,119 C92.328,119 93,118.329 93,117.5 C93,116.671 92.328,116 91.5,116 Z" transform="translate(-76 -108)"/>
</svg>
